{
    "version": 2,
    "name": "File Uploads API",
    "alias": "uploads-api",
    "builds": [
        {"src": "www/*", "use": "@now/node"},
        {"src": "api/**/*.js", "use": "@now/node"}
    ],
    "routes": [
        {"src": "/api/(.*)", "dest": "/api/$1"},
        {"src": "/(.*)", "dest": "/www/$1"}
    ],
    "env": {
        "API_URL": "@tff_dl_webapp_api_url_production",
        "BUGSNAG_CLIENT_ID": "@tff_dl_webapp_bugsnag_uploads_client_id_production"
    }
}
